{
    "page": 1,
    "total_results": 65,
    "total_pages": 4,
    "results": [
    {
    "vote_count": 5312,
    "id": 562,
    "video": false,
    "vote_average": 7.6,
    "title": "Die Hard",
    "popularity": 14.187,
    "poster_path": "/mc7MubOLcIw3MDvnuQFrO9psfCa.jpg",
    "original_language": "en",
    "original_title": "Die Hard",
    "genre_ids": [
    28,
    53
    ],
    "backdrop_path": "/q4NRgTyah0KfxXB0P4DBk0lJR7P.jpg",
    "adult": false,
    "overview": "NYPD cop, John McClane's plan to reconcile with his estranged wife is thrown for a serious loop when minutes after he arrives at her office, the entire building is overtaken by a group of terrorists. With little help from the LAPD, wisecracking McClane sets out to single-handedly rescue the hostages and bring the bad guys down.",
    "release_date": "1988-07-15"
    },
    {
    "vote_count": 2565,
    "id": 1573,
    "video": false,
    "vote_average": 6.8,
    "title": "Die Hard 2",
    "popularity": 12.731,
    "poster_path": "/zSgL998DXaljsCmwQuwDM8Ak4rV.jpg",
    "original_language": "en",
    "original_title": "Die Hard 2",
    "genre_ids": [
    28,
    53
    ],
    "backdrop_path": "/kywkOlRpYtfVlar41R1s8lO46vD.jpg",
    "adult": false,
    "overview": "Off-duty cop John McClane is gripped with a feeling of déjà vu when, on a snowy Christmas Eve in the nation’s capital, terrorists seize a major international airport, holding thousands of holiday travelers hostage. Renegade military commandos led by a murderous rogue officer plot to rescue a drug lord from justice and are prepared for every contingency except one: McClane’s smart-mouthed heroics.",
    "release_date": "1990-07-02"
    },
    {
    "vote_count": 2853,
    "id": 1571,
    "video": false,
    "vote_average": 6.5,
    "title": "Live Free or Die Hard",
    "popularity": 14.168,
    "poster_path": "/pHWgbaXiQD2nmex7u8Xv6XmhaZS.jpg",
    "original_language": "en",
    "original_title": "Live Free or Die Hard",
    "genre_ids": [
    28,
    53
    ],
    "backdrop_path": "/74J904knbahSF7csIEfmRtmdi0t.jpg",
    "adult": false,
    "overview": "John McClane is back and badder than ever, and this time he's working for Homeland Security. He calls on the services of a young hacker in his bid to stop a ring of Internet terrorists intent on taking control of America's computer infrastructure.",
    "release_date": "2007-06-20"
    },
    {
    "vote_count": 2832,
    "id": 1572,
    "video": false,
    "vote_average": 7.1,
    "title": "Die Hard: With a Vengeance",
    "popularity": 12.771,
    "poster_path": "/ivpXGcsPZglyYrN65THWSD7JM3q.jpg",
    "original_language": "en",
    "original_title": "Die Hard: With a Vengeance",
    "genre_ids": [
    28,
    53
    ],
    "backdrop_path": "/aJCEQFFXNcfg5YneJzTG15qzxF7.jpg",
    "adult": false,
    "overview": "New York detective John McClane is back and kicking bad-guy butt in the third installment of this action-packed series, which finds him teaming with civilian Zeus Carver to prevent the loss of innocent lives. McClane thought he'd seen it all, until a genius named Simon engages McClane, his new \"partner\" -- and his beloved city -- in a deadly game that demands their concentration.",
    "release_date": "1995-05-19"
    },
    {
    "vote_count": 4078,
    "id": 47964,
    "video": false,
    "vote_average": 5.2,
    "title": "A Good Day to Die Hard",
    "popularity": 12.543,
    "poster_path": "/c2SQMd00CCGTiDxGXVqA2J9lmzF.jpg",
    "original_language": "en",
    "original_title": "A Good Day to Die Hard",
    "genre_ids": [
    28,
    53
    ],
    "backdrop_path": "/17zArExB7ztm6fjUXZwQWgGMC9f.jpg",
    "adult": false,
    "overview": "Iconoclastic, take-no-prisoners cop John McClane, finds himself for the first time on foreign soil after traveling to Moscow to help his wayward son Jack - unaware that Jack is really a highly-trained CIA operative out to stop a nuclear weapons heist. With the Russian underworld in pursuit, and battling a countdown to war, the two McClanes discover that their opposing methods make them unstoppable heroes.",
    "release_date": "2013-02-06"
    },
    {
    "vote_count": 24,
    "id": 28339,
    "video": false,
    "vote_average": 6.1,
    "title": "Hard to Die",
    "popularity": 1.472,
    "poster_path": "/h7ysWHqr62MgadIdXByYDaDaf7j.jpg",
    "original_language": "en",
    "original_title": "Hard to Die",
    "genre_ids": [
    28,
    35,
    53
    ],
    "backdrop_path": "/5wHcVeMuUNlgQ2JvN0bVQ4sSDeM.jpg",
    "adult": false,
    "overview": "While doing the inventory for a lingerie outlet in a high rise office building, five attractive women are terrorized by a series of bizarre killings. They suspect that the strange janitor, who witnessed another series of killings years back, is at the bottom of the whole thing. Little do they know the real horror that they face in the end.",
    "release_date": "1993-03-10"
    },
    {
    "vote_count": 276,
    "id": 6575,
    "video": false,
    "vote_average": 6.5,
    "title": "Walk Hard: The Dewey Cox Story",
    "popularity": 7.654,
    "poster_path": "/2sc7qoLTqZC0nB2k1crwuVoKP6H.jpg",
    "original_language": "en",
    "original_title": "Walk Hard: The Dewey Cox Story",
    "genre_ids": [
    35,
    10402
    ],
    "backdrop_path": "/jEmPbbnea3jRK7KTUuPB5ntZUoA.jpg",
    "adult": false,
    "overview": "Following a childhood tragedy, Dewey Cox follows a long and winding road to music stardom. Dewey perseveres through changing musical styles, an addiction to nearly every drug known and bouts of uncontrollable rage.",
    "release_date": "2007-12-21"
    },
    {
    "vote_count": 1,
    "id": 492118,
    "video": false,
    "vote_average": 6,
    "title": "The Last Party of Your Life",
    "popularity": 2.744,
    "poster_path": "/mDJsWHvkMjpjfXw8R1SrJum9gsv.jpg",
    "original_language": "de",
    "original_title": "Die letzte Party deines Lebens",
    "genre_ids": [
    53,
    27
    ],
    "backdrop_path": "/xuGXZ8Ban6QxF6djLb2sO18Simp.jpg",
    "adult": false,
    "overview": "Finally, graduated and off to Croatia. It's supposed to be the \"party of their lives.\" But for Julia and her friends their graduation trip turns into a horror trip, from which not everyone will return.",
    "release_date": "2018-03-22"
    },
    {
    "vote_count": 20,
    "id": 21106,
    "video": false,
    "vote_average": 3.8,
    "title": "Hard Cash",
    "popularity": 1.533,
    "poster_path": "/fmLlzQ04plPrXn4rSn6w58OIaHm.jpg",
    "original_language": "en",
    "original_title": "Hard Cash",
    "genre_ids": [
    28,
    80,
    53
    ],
    "backdrop_path": "/bYGBgRvVF2od6thT7mb2ApzVaZm.jpg",
    "adult": false,
    "overview": "Released from prison, an infamous thief and his new crew pull of a brilliant robbery but then become embroiled with a corrupt FBI agent when they discover the money is marked.",
    "release_date": "2002-02-15"
    },
    {
    "vote_count": 55,
    "id": 18857,
    "video": false,
    "vote_average": 6.8,
    "title": "Crime Story",
    "popularity": 5.435,
    "poster_path": "/5qmlgzTu7LACLKoBqg0p2FzjfuY.jpg",
    "original_language": "cn",
    "original_title": "重案組",
    "genre_ids": [
    53,
    28,
    80,
    18
    ],
    "backdrop_path": "/493hhtYsGAWFdqRuyFSiytwHopu.jpg",
    "adult": false,
    "overview": "A special agent assigned to protect a wealthy business magnate. However, when the businessman is kidnapped in a daring ambush, he teams up with a seasoned detective to crack the case. But soon he discovers the case isn't that simple.",
    "release_date": "1993-06-24"
    },
    {
    "vote_count": 0,
    "id": 41299,
    "video": false,
    "vote_average": 0,
    "title": "Dreams Die Hard",
    "popularity": 0.6,
    "poster_path": "/uNcZKcD1UjfEhOdBmNGGosbG0aN.jpg",
    "original_language": "en",
    "original_title": "Dreams Die Hard",
    "genre_ids": [
    99
    ],
    "backdrop_path": null,
    "adult": false,
    "overview": "One of them wanted to earn money so she could treat her parents like a king and queen, two of them were enticed by the promise of a good education, another one wanted to buy medicine for his sick son; none of them ever dreamed they would become slaves in the United States. But that is what happened.",
    "release_date": "2005-01-01"
    },
    {
    "vote_count": 0,
    "id": 42533,
    "video": false,
    "vote_average": 0,
    "title": "Angels Die Hard",
    "popularity": 0.6,
    "poster_path": "/AjTjvrdFrXBlvmoMjZ3F1Q7ZZF5.jpg",
    "original_language": "en",
    "original_title": "Angels Die Hard",
    "genre_ids": [
    28,
    18
    ],
    "backdrop_path": null,
    "adult": false,
    "overview": "Gang of bikers try to save people in a mining disaster.",
    "release_date": "1970-07-08"
    },
    {
    "vote_count": 9,
    "id": 31260,
    "video": false,
    "vote_average": 2.2,
    "title": "Die Hard Dracula",
    "popularity": 0.6,
    "poster_path": "/qIrkSlj8pRIHdcFIJOPD747mr47.jpg",
    "original_language": "en",
    "original_title": "Die Hard Dracula",
    "genre_ids": [],
    "backdrop_path": null,
    "adult": false,
    "overview": "We find Steven, a good-looking American hero devastated by the death of his girlfriend, wandering through Europe and looking for happiness. A car accident leads him to a small town sitting literally in the shadow of Dracula's castle. The frightened villagers have been preyed upon for generations. Steven is stunned to discover Carla, the innkeeper's daughter looks identical to his dead girlfriend. When she begs for his assistance against the vampire, he agrees to help them. Together with Dr. Van Helsing, he attacks Dracula using a variety of ingenious weapons against the supernatural. Dracula shows unusual powers that defeat them at every turn, including fireballs and lightning from his fingertips. He is constantly on a search for blood to satisfy his centuries-old bickering brides. When Dracula kidnaps Carla right out of her bed, Steven and Van Helsing desperately try to kill him before it is too late.",
    "release_date": "1998-01-01"
    },
    {
    "vote_count": 1,
    "id": 269640,
    "video": false,
    "vote_average": 10,
    "title": "To Die is Hard",
    "popularity": 0.6,
    "poster_path": "/nLsjk0UEzUf5uZbAmjZU20ZaFj9.jpg",
    "original_language": "en",
    "original_title": "To Die is Hard",
    "genre_ids": [
    35,
    28
    ],
    "backdrop_path": null,
    "adult": false,
    "overview": "When a gang of terrorists invade a campus building, it's up to English professor Joe McCann to save the day.",
    "release_date": "2010-01-01"
    },
    {
    "vote_count": 1,
    "id": 199328,
    "video": false,
    "vote_average": 6,
    "title": "Decoding Die Hard",
    "popularity": 0.6,
    "poster_path": "/qRW5pJ1Mv7bKkSqfjpKUe840aqC.jpg",
    "original_language": "en",
    "original_title": "Decoding Die Hard",
    "genre_ids": [],
    "backdrop_path": null,
    "adult": false,
    "overview": "A one hour and forty-seven minute retrospective documentary about the franchise.",
    "release_date": "2013-01-29"
    },
    {
    "vote_count": 0,
    "id": 452379,
    "video": false,
    "vote_average": 0,
    "title": "Old Habits Die Hard",
    "popularity": 0.6,
    "poster_path": "/iWShQAChbzJuBvndkDQmir01UOS.jpg",
    "original_language": "en",
    "original_title": "Old Habits Die Hard",
    "genre_ids": [
    27
    ],
    "backdrop_path": null,
    "adult": false,
    "overview": "Low budget slasher.",
    "release_date": "2009-06-01"
    },
    {
    "vote_count": 1,
    "id": 91276,
    "video": false,
    "vote_average": 5,
    "title": "Die Hard",
    "popularity": 0.6,
    "poster_path": "/zeTadibdSNzCW1xlrOCkUNc0xJ6.jpg",
    "original_language": "ru",
    "original_title": "Крепкий орешек",
    "genre_ids": [
    10749,
    35,
    10752,
    12
    ],
    "backdrop_path": "/2uL4czDOh4MGGL9KVLFwrFJzX4C.jpg",
    "adult": false,
    "overview": "A comedy about young lieutenant Ivan and his all-girls air defense unit adventures during WWII.",
    "release_date": "1968-06-13"
    },
    {
    "vote_count": 1,
    "id": 243213,
    "video": false,
    "vote_average": 5,
    "title": "A Good Clay to Die Hard",
    "popularity": 0.627,
    "poster_path": "/99qxxzvJhbXT12tSD0BUarfvv2r.jpg",
    "original_language": "en",
    "original_title": "A Good Clay to Die Hard",
    "genre_ids": [
    16
    ],
    "backdrop_path": null,
    "adult": false,
    "overview": "A claymation version of A Good Day to Die Hard.",
    "release_date": "2013-02-08"
    },
    {
    "vote_count": 0,
    "id": 461576,
    "video": false,
    "vote_average": 0,
    "title": "Die-Hard Angels (Project Zombie Annihilation)",
    "popularity": 0.6,
    "poster_path": "/pUP41MvFBdfAJczOQdpWHHEb6TV.jpg",
    "original_language": "ja",
    "original_title": "ダイハードエンジェルス　危険に抱かれた女たち",
    "genre_ids": [
    28
    ],
    "backdrop_path": null,
    "adult": false,
    "overview": "A group of female commandos confront evil criminals Zombie-Man and Zombie-Woman.",
    "release_date": "1991-04-01"
    },
    {
    "vote_count": 1,
    "id": 466267,
    "video": false,
    "vote_average": 10,
    "title": "Iputok mo... Dadapa ako! (Hard to Die)",
    "popularity": 0.62,
    "poster_path": "/8L46ImIfx9a01uCYxSO4G6Jc52H.jpg",
    "original_language": "en",
    "original_title": "Iputok mo... Dadapa ako! (Hard to Die)",
    "genre_ids": [
    35
    ],
    "backdrop_path": null,
    "adult": false,
    "overview": "Bruce Deelees (Vic Sotto) is a simple hillbilly and Maryo (Francis Magalona) is his cousin studying in Manila nothing to do but truancy. After the death of their grandfather that they decided to stay in Manila. Here's Bruce met Olga (Rita Avila), Bruce fascinated with Olga and she immediately be courted. But there are conditions to get Olga Bruce his \"sweet yes\". It is necessary to win her first beauty contest she joined. Coronation day, a group of terrorists led by Saddam they (Dick Israel) and Hussein (John Regala) that encounter by Bruce and Maryo. They eventually defeated the terrorists and get hold of Bruce's long he hoped from Olga.",
    "release_date": "1990-12-11"
    }
    ]
    }